<svg width="8" height="9" viewBox="0 0 8 9" fill="none" xmlns="http://www.w3.org/2000/svg">
<path d="M6.27965 4.628C6.27601 4.0073 6.55724 3.5395 7.12515 3.19457C6.80752 2.73951 6.32698 2.48923 5.69354 2.44099C5.09377 2.39367 4.43758 2.79048 4.19731 2.79048C3.94339 2.79048 3.36273 2.45737 2.90585 2.45737C1.96297 2.47194 0.960938 3.20913 0.960938 4.709C0.960938 5.15223 1.04194 5.61001 1.20394 6.08145C1.42055 6.70215 2.20142 8.22296 3.01598 8.19838C3.44191 8.18837 3.74316 7.89622 4.29742 7.89622C4.8353 7.89622 5.1138 8.19838 5.58888 8.19838C6.41071 8.18655 7.11696 6.80409 7.32265 6.18157C6.2205 5.66189 6.27965 4.65985 6.27965 4.628ZM5.32312 1.85215C5.78455 1.30426 5.74269 0.805513 5.72903 0.626221C5.3213 0.649884 4.84986 0.903806 4.58138 1.21598C4.28559 1.5509 4.11176 1.965 4.14907 2.43189C4.58957 2.46556 4.99184 2.23895 5.32312 1.85215Z" fill="#313131"/>
</svg>
